{
  "items": [
    {
      "type": "file",
      "ctime": 1714058594501,
      "path": "archive/Tips.md"
    },
    {
      "type": "file",
      "ctime": 1714058605468,
      "path": "home.md"
    }
  ]
}